{
    "page": 1,
    "total_results": 1490,
    "total_pages": 75,
    "results": [
        {
            "popularity": 193.08,
            "vote_count": 2246,
            "video": false,
            "poster_path": "/8WUVHemHFH2ZIP6NWkwlHWsyrEL.jpg",
            "id": 338762,
            "adult": false,
            "backdrop_path": "/ocUrMYbdjknu2TwzMHKT9PBBQRw.jpg",
            "original_language": "en",
            "original_title": "Bloodshot",
            "genre_ids": [
                28,
                18,
                878
            ],
            "title": "Bloodshot",
            "vote_average": 7.1,
            "overview": "After he and his wife are murdered, marine Ray Garrison is resurrected by a team of scientists. Enhanced with nanotechnology, he becomes a superhuman, biotech killing machine—'Bloodshot'. As Ray first trains with fellow super-soldiers, he cannot recall anything from his former life. But when his memories flood back and he remembers the man that killed both him and his wife, he breaks out of the facility to get revenge, only to discover that there's more to the conspiracy than he thought.",
            "release_date": "2020-03-05"
        },
        {
            "popularity": 150.245,
            "vote_count": 1931,
            "video": false,
            "poster_path": "/wlfDxbGEsW58vGhFljKkcR5IxDj.jpg",
            "id": 545609,
            "adult": false,
            "backdrop_path": "/1R6cvRtZgsYCkh8UFuWFN33xBP4.jpg",
            "original_language": "en",
            "original_title": "Extraction",
            "genre_ids": [
                28,
                18,
                53
            ],
            "title": "Extraction",
            "vote_average": 7.5,
            "overview": "Tyler Rake, a fearless mercenary who offers his services on the black market, embarks on a dangerous mission when he is hired to rescue the kidnapped son of a Mumbai crime lord…",
            "release_date": "2020-04-24"
        },
        {
            "popularity": 123.449,
            "vote_count": 1048,
            "video": false,
            "poster_path": "/33VdppGbeNxICrFUtW2WpGHvfYc.jpg",
            "id": 481848,
            "adult": false,
            "backdrop_path": "/9sXHqZTet3Zg5tgcc0hCDo8Tn35.jpg",
            "original_language": "en",
            "original_title": "The Call of the Wild",
            "genre_ids": [
                12,
                18,
                10751
            ],
            "title": "The Call of the Wild",
            "vote_average": 7.3,
            "overview": "Buck is a big-hearted dog whose blissful domestic life is turned upside down when he is suddenly uprooted from his California home and transplanted to the exotic wilds of the Yukon during the Gold Rush of the 1890s. As the newest rookie on a mail delivery dog sled team—and later its leader—Buck experiences the adventure of a lifetime, ultimately finding his true place in the world and becoming his own master.",
            "release_date": "2020-02-19"
        },
        {
            "popularity": 58.461,
            "vote_count": 0,
            "video": false,
            "poster_path": "/75gDv38UgRtAukSxNXcjatyQmEa.jpg",
            "id": 429422,
            "adult": false,
            "backdrop_path": "/g88WHmk1CVty8sXq051fRAVhq6A.jpg",
            "original_language": "en",
            "original_title": "Capone",
            "genre_ids": [
                80,
                18
            ],
            "title": "Capone",
            "vote_average": 0,
            "overview": "The 47-year old Al Capone, after 10 years in prison, starts suffering from dementia and comes to be haunted by his violent past.",
            "release_date": "2020-09-10"
        },
        {
            "popularity": 44.169,
            "vote_count": 268,
            "video": false,
            "poster_path": "/sm8iVzA7kRp0d4BSIsgXjsSBMKV.jpg",
            "id": 556678,
            "adult": false,
            "backdrop_path": "/5GbkL9DDRzq3A21nR7Gkv6cFGjq.jpg",
            "original_language": "en",
            "original_title": "Emma.",
            "genre_ids": [
                35,
                18,
                10749
            ],
            "title": "Emma.",
            "vote_average": 7,
            "overview": "In 1800s England, a well-meaning but selfish young woman meddles in the love lives of her friends.",
            "release_date": "2020-02-13"
        },
        {
            "popularity": 44.067,
            "vote_count": 42,
            "video": false,
            "poster_path": "/iPOHjGttfXfPsqhhv6x0fv5rU1H.jpg",
            "id": 449756,
            "adult": false,
            "backdrop_path": "/7bwQ5NyjZHrbithaML4XcE7WS3n.jpg",
            "original_language": "en",
            "original_title": "The Postcard Killings",
            "genre_ids": [
                80,
                18,
                9648
            ],
            "title": "The Postcard Killings",
            "vote_average": 6.5,
            "overview": "A New York detective investigates the death of his daughter who was murdered while on her honeymoon in London and recruits the help of a Scandinavian journalist when other couples throughout Europe suffer a similar fate.",
            "release_date": "2020-03-13"
        },
        {
            "popularity": 40.417,
            "vote_count": 209,
            "video": false,
            "poster_path": "/zwgPO5bamUuajIAEc02q9XZ2qhq.jpg",
            "id": 529485,
            "adult": false,
            "backdrop_path": "/5mubFanEHVFJff4jLQH0uIOThMz.jpg",
            "original_language": "en",
            "original_title": "The Way Back",
            "genre_ids": [
                18
            ],
            "title": "The Way Back",
            "vote_average": 6.6,
            "overview": "A former basketball all-star, who has lost his wife and family foundation in a struggle with addiction attempts to regain his soul and salvation by becoming the coach of a disparate ethnically mixed high school basketball team at his alma mater.",
            "release_date": "2020-03-05"
        },
        {
            "popularity": 34.829,
            "vote_count": 44,
            "video": false,
            "poster_path": "/dV3t2ZrforWd803QmgEMOVkv8Mj.jpg",
            "id": 560391,
            "adult": false,
            "backdrop_path": "/hBiYJUSmEhu9gEE9i3Kt70A1Q46.jpg",
            "original_language": "en",
            "original_title": "Downhill",
            "genre_ids": [
                35,
                18
            ],
            "title": "Downhill",
            "vote_average": 5.1,
            "overview": "Barely escaping an avalanche during a family ski vacation in the Alps, a married couple is thrown into disarray as they are forced to reevaluate their lives and how they feel about each other.",
            "release_date": "2020-02-13"
        },
        {
            "popularity": 30.221,
            "vote_count": 25,
            "video": false,
            "poster_path": "/ieNGttYsxunAANK9LRZa4LdkEqi.jpg",
            "id": 560204,
            "adult": false,
            "backdrop_path": "/1Q3cxQmZcU7lqwWlruKL2yCC5j2.jpg",
            "original_language": "en",
            "original_title": "Arkansas",
            "genre_ids": [
                80,
                18,
                53
            ],
            "title": "Arkansas",
            "vote_average": 6.1,
            "overview": "Kyle and Swin live by the orders of an Arkansas-based drug kingpin named Frog, whom they've never met. But when a deal goes horribly wrong, the consequences are deadly.",
            "release_date": "2020-05-05"
        },
        {
            "popularity": 29.863,
            "vote_count": 346,
            "video": false,
            "poster_path": "/dqA2FCzz4OMmXLitKopzf476RVB.jpg",
            "id": 585244,
            "adult": false,
            "backdrop_path": "/ezcf15gSuZmW51N5yiqE3tWg9zu.jpg",
            "original_language": "en",
            "original_title": "I Still Believe",
            "genre_ids": [
                18,
                10402
            ],
            "title": "I Still Believe",
            "vote_average": 7.8,
            "overview": "The true-life story of Christian music star Jeremy Camp and his journey of love and loss that looks to prove there is always hope.",
            "release_date": "2020-03-12"
        },
        {
            "popularity": 29.406,
            "vote_count": 42,
            "video": false,
            "poster_path": "/uZF4BZe45icLx7XVFUFnmLEemNm.jpg",
            "id": 501395,
            "adult": false,
            "backdrop_path": "/A6btO9zNMaoRr4DFR4rXojMExTZ.jpg",
            "original_language": "en",
            "original_title": "True History of the Kelly Gang",
            "genre_ids": [
                80,
                18
            ],
            "title": "True History of the Kelly Gang",
            "vote_average": 6.3,
            "overview": "Set against the badlands of colonial Australia where the English rule with a bloody fist and the Irish endure, Ned Kelly discovers he comes from a line of Irish rebels—an uncompromising army of cross dressing bandits immortalised for terrorising their oppressors back in Ireland. Nurtured by the notorious bushranger, Harry Power and fuelled by the unfair arrest of his mother, Kelly recruits a wild bunch of warriors to plot one of the most audacious attacks of anarchy and rebellion the country has ever seen.",
            "release_date": "2020-01-09"
        },
        {
            "popularity": 28.745,
            "vote_count": 13,
            "video": false,
            "poster_path": "/o1D5kEPPOGReel6CipiKOY5tPJt.jpg",
            "id": 642657,
            "adult": false,
            "backdrop_path": "/eUFN7zot3iRSm19xKxxnm6Vxeot.jpg",
            "original_language": "id",
            "original_title": "Milea: Suara dari Dilan",
            "genre_ids": [
                18,
                10749
            ],
            "title": "Milea: Suara dari Dilan",
            "vote_average": 5.2,
            "overview": "Before the grand reunion, Dilan decided to write and retell his love story with Milea. This is Dilan's way of remembering Milea.",
            "release_date": "2020-02-13"
        },
        {
            "popularity": 28.593,
            "vote_count": 218,
            "video": false,
            "poster_path": "/biXzsw22U6vSd0XktmZwAOc4uik.jpg",
            "id": 627725,
            "adult": false,
            "backdrop_path": "/jqz8FwISQfyum47PUqgPTGtmiMk.jpg",
            "original_language": "en",
            "original_title": "The Banker",
            "genre_ids": [
                18
            ],
            "title": "The Banker",
            "vote_average": 7.5,
            "overview": "In the 1960s, two entrepreneurs hatch an ingenious business plan to fight for housing integration—and equal access to the American Dream.",
            "release_date": "2020-03-06"
        },
        {
            "popularity": 28.006,
            "vote_count": 10,
            "video": false,
            "poster_path": "/oiFxdnsQyGs3DBLzHzW92GrDR6w.jpg",
            "id": 682071,
            "adult": false,
            "backdrop_path": "/6I6ZhQrX4L4KIxSzlgg8zc1BSLr.jpg",
            "original_language": "en",
            "original_title": "To the Beat! Back 2 School",
            "genre_ids": [
                35,
                18,
                10751
            ],
            "title": "To the Beat! Back 2 School",
            "vote_average": 4.4,
            "overview": "Sisterhood is tested, rivalries heat up and new bonds are formed when students go back to their performing arts school to compete for an all-expense paid summer scholarship program to a prestigious Conservatory of Fine Arts.",
            "release_date": "2020-03-10"
        },
        {
            "popularity": 25.925,
            "vote_count": 135,
            "video": false,
            "poster_path": "/tABtj9BwYVDCM69h7AK38MDgw64.jpg",
            "id": 653744,
            "adult": false,
            "backdrop_path": "/a2UDJvvyDANSKcBRtEDLExVK0Pg.jpg",
            "original_language": "en",
            "original_title": "Sergio",
            "genre_ids": [
                18
            ],
            "title": "Sergio",
            "vote_average": 6.9,
            "overview": "A sweeping drama set in the chaotic aftermath of the US invasion of Iraq, where the life of top UN diplomat Sergio Vieira de Mello hangs in the balance during the most treacherous mission of his career.",
            "release_date": "2020-01-28"
        },
        {
            "popularity": 25.298,
            "vote_count": 62,
            "video": false,
            "poster_path": "/8xiV8j18GhWnnrfMGaDR0E5oOif.jpg",
            "id": 530956,
            "adult": false,
            "backdrop_path": "/9XCnndiIzsWibZhxPoo8EV04fzr.jpg",
            "original_language": "en",
            "original_title": "All Day and a Night",
            "genre_ids": [
                18
            ],
            "title": "All Day and a Night",
            "vote_average": 6.4,
            "overview": "While serving life in prison, a young man looks back at the people, the circumstances and the system that set him on the path toward his crime.",
            "release_date": "2020-05-01"
        },
        {
            "popularity": 25.17,
            "vote_count": 17,
            "video": false,
            "poster_path": "/mZPmDFlVp1BSGQD4QCKHOwbXLfv.jpg",
            "id": 567598,
            "adult": false,
            "backdrop_path": "/mTc7uNertlVSRYiZv21NtBMykkE.jpg",
            "original_language": "en",
            "original_title": "Greed",
            "genre_ids": [
                35,
                18
            ],
            "title": "Greed",
            "vote_average": 5.2,
            "overview": "A retail billionaire's 60th birthday party is celebrated in an exclusive hotel on the Greek island of Mykonos.",
            "release_date": "2020-02-21"
        },
        {
            "popularity": 24.931,
            "vote_count": 0,
            "video": false,
            "poster_path": "/oN8XOrMb5piCUnbGy3p3qghx4Mj.jpg",
            "id": 632632,
            "adult": false,
            "backdrop_path": "/u1wHUA0R48FH4WV3sGqjwx3aNZm.jpg",
            "original_language": "ja",
            "original_title": "映画 ギヴン",
            "genre_ids": [
                16,
                18,
                10402
            ],
            "title": "Given",
            "vote_average": 0,
            "overview": "Following the airing of the final episode of the Given anime adaptation today in Japan, the official Twitter account announced that a feature film adaptation will be released in 2020 directly picking up where the TV series left off.",
            "release_date": "2020-05-16"
        },
        {
            "popularity": 23.61,
            "vote_count": 0,
            "video": false,
            "poster_path": "/aKx1ARwG55zZ0GpRvU2WrGrCG9o.jpg",
            "id": 337401,
            "adult": false,
            "backdrop_path": "/xl5oCFLVMo4d4Pgxvrf8Jmc2IlA.jpg",
            "original_language": "en",
            "original_title": "Mulan",
            "genre_ids": [
                28,
                18,
                10752
            ],
            "title": "Mulan",
            "vote_average": 0,
            "overview": "When the Emperor of China issues a decree that one man per family must serve in the Imperial Chinese Army to defend the country from Huns, Hua Mulan, the eldest daughter of an honored warrior, steps in to take the place of her ailing father. She is spirited, determined and quick on her feet. Disguised as a man by the name of Hua Jun, she is tested every step of the way and must harness her innermost strength and embrace her true potential.",
            "release_date": "2020-07-23"
        },
        {
            "popularity": 23.293,
            "id": 502425,
            "video": false,
            "vote_count": 160,
            "vote_average": 6.5,
            "title": "Escape From Pretoria",
            "release_date": "2020-03-06",
            "original_language": "en",
            "original_title": "Escape From Pretoria",
            "genre_ids": [
                18,
                36,
                53
            ],
            "backdrop_path": "/kolkVKNZSjhZGHwcrFU36Watpke.jpg",
            "adult": false,
            "overview": "South Africa, 1978. Tim Jenkin and Stephen Lee, two white political activists from the African National Congress imprisoned by the apartheid regime, put a plan in motion to escape from the infamous Pretoria Prison…",
            "poster_path": "/8GGS0jkFFCnmdStvZED6NL6V7gd.jpg"
        }
    ]
}